\relax 
\providecommand\hyper@newdestlabel[2]{}
\catcode `"\active 
\providecommand\HyperFirstAtBeginDocument{\AtBeginDocument}
\HyperFirstAtBeginDocument{\ifx\hyper@anchor\@undefined
\global\let\oldcontentsline\contentsline
\gdef\contentsline#1#2#3#4{\oldcontentsline{#1}{#2}{#3}}
\global\let\oldnewlabel\newlabel
\gdef\newlabel#1#2{\newlabelxx{#1}#2}
\gdef\newlabelxx#1#2#3#4#5#6{\oldnewlabel{#1}{{#2}{#3}}}
\AtEndDocument{\ifx\hyper@anchor\@undefined
\let\contentsline\oldcontentsline
\let\newlabel\oldnewlabel
\fi}
\fi}
\global\let\hyper@last\relax 
\gdef\HyperFirstAtBeginDocument#1{#1}
\providecommand\HyField@AuxAddToFields[1]{}
\providecommand\HyField@AuxAddToCoFields[2]{}
\babel@aux{ngerman}{}
\newlabel{index::doc}{{}{1}{}{section*.2}{}}
\@writefile{toc}{\contentsline {chapter}{\numberline {1}Hintergr\IeC {\"u}nde}{1}{chapter.1}\protected@file@percent }
\@writefile{lof}{\addvspace {10\p@ }}
\@writefile{lot}{\addvspace {10\p@ }}
\newlabel{background:hintergrunde}{{1}{1}{Hintergründe}{chapter.1}{}}
\newlabel{background::doc}{{1}{1}{Hintergründe}{chapter.1}{}}
\@writefile{toc}{\contentsline {chapter}{\numberline {2}ERP}{3}{chapter.2}\protected@file@percent }
\@writefile{lof}{\addvspace {10\p@ }}
\@writefile{lot}{\addvspace {10\p@ }}
\newlabel{erp:erp}{{2}{3}{ERP}{chapter.2}{}}
\newlabel{erp::doc}{{2}{3}{ERP}{chapter.2}{}}
\@writefile{toc}{\contentsline {chapter}{\numberline {3}Memo}{5}{chapter.3}\protected@file@percent }
\@writefile{lof}{\addvspace {10\p@ }}
\@writefile{lot}{\addvspace {10\p@ }}
\newlabel{memo:memo}{{3}{5}{Memo}{chapter.3}{}}
\newlabel{memo::doc}{{3}{5}{Memo}{chapter.3}{}}
\@writefile{toc}{\contentsline {chapter}{\numberline {4}todo}{7}{chapter.4}\protected@file@percent }
\@writefile{lof}{\addvspace {10\p@ }}
\@writefile{lot}{\addvspace {10\p@ }}
\newlabel{todo:todo}{{4}{7}{todo}{chapter.4}{}}
\newlabel{todo::doc}{{4}{7}{todo}{chapter.4}{}}
\@writefile{toc}{\contentsline {chapter}{\numberline {5}Indices and tables}{9}{chapter.5}\protected@file@percent }
\@writefile{lof}{\addvspace {10\p@ }}
\@writefile{lot}{\addvspace {10\p@ }}
\newlabel{index:indices-and-tables}{{5}{9}{Indices and tables}{chapter.5}{}}
