\babel@toc {ngerman}{}
\contentsline {chapter}{\numberline {1}Hintergr\IeC {\"u}nde}{1}{chapter.1}% 
\contentsline {chapter}{\numberline {2}ERP}{3}{chapter.2}% 
\contentsline {chapter}{\numberline {3}Memo}{5}{chapter.3}% 
\contentsline {chapter}{\numberline {4}todo}{7}{chapter.4}% 
\contentsline {chapter}{\numberline {5}Indices and tables}{9}{chapter.5}% 
